<?xml version="1.0" standalone="no"?>
<!DOCTYPE svg PUBLIC "-//W3C//DTD SVG 20010904//EN"
 "http://www.w3.org/TR/2001/REC-SVG-20010904/DTD/svg10.dtd">
<svg version="1.0" xmlns="http://www.w3.org/2000/svg"
 width="375.000000pt" height="375.000000pt" viewBox="0 0 375.000000 375.000000"
 preserveAspectRatio="xMidYMid meet">
<metadata>
Created by potrace 1.14, written by Peter Selinger 2001-2017
</metadata>
<g transform="translate(0.000000,375.000000) scale(0.100000,-0.100000)"
fill="#000000" stroke="none">
<path d="M1655 3738 c-445 -50 -890 -283 -1186 -621 -235 -269 -384 -585 -451
-957 -18 -101 -18 -469 0 -570 52 -291 149 -535 303 -765 264 -392 679 -676
1140 -779 762 -169 1538 140 1970 783 207 308 319 674 319 1046 0 625 -311
1208 -829 1556 -315 212 -682 322 -1063 318 -68 -1 -159 -6 -203 -11z m-157
-1373 c34 -8 82 -25 105 -36 59 -30 148 -102 187 -151 37 -46 37 -45 -19 -169
l-28 -61 -32 50 c-17 27 -56 73 -86 101 -117 110 -250 136 -379 72 -250 -123
-250 -469 0 -592 127 -63 261 -39 375 68 70 66 124 147 179 274 111 252 269
405 462 445 227 48 453 -67 556 -283 33 -71 37 -87 40 -180 4 -82 0 -115 -16
-170 -50 -162 -173 -285 -335 -334 -102 -32 -247 -24 -337 16 -70 32 -155 96
-213 161 l-37 41 43 92 43 92 31 -48 c46 -70 134 -150 200 -181 232 -108 502
111 449 365 -38 187 -227 309 -401 259 -78 -23 -120 -52 -193 -131 -45 -49
-76 -97 -112 -174 -107 -224 -166 -312 -263 -392 -168 -141 -359 -166 -552
-74 -171 82 -278 255 -278 450 0 324 298 564 611 490z"/>
</g>
</svg>
